<?xml version="1.0" encoding="UTF-8"?>
<svg width="147px" height="33px" viewBox="0 0 147 33" version="1.1" xmlns="http://www.w3.org/2000/svg" xmlns:xlink="http://www.w3.org/1999/xlink">
    <!-- Generator: Sketch 40.3 (33839) - http://www.bohemiancoding.com/sketch -->
    <title>absa-logo-white</title>
    <desc>Created with Sketch.</desc>
    <defs></defs>
    <g id="Symbols" stroke="none" stroke-width="1" fill="none" fill-rule="evenodd">
        <g id="absa-logo-white" fill="#FFFFFF">
            <g id="Absa-logo-white">
                <g id="Layer_1">
                    <path d="M72.4672308,28.68 L69.7986154,23.49 L60.3906154,23.49 L57.7747692,28.68 L54.7216923,28.68 L66.8435385,5.745 L79.2593846,28.6725 L72.4747692,28.6725 L72.4672308,28.68 Z M61.6344615,21.045 L68.5472308,21.045 C66.8963077,17.925 65.0418462,14.25 65.0418462,14.25 C65.0418462,14.25 62.3355385,19.6725 61.6344615,21.0375 L61.6344615,21.045 Z M115.029385,14.7675 C118.512154,16.065 122.507538,17.205 122.507538,21.9075 C122.507538,25.965 118.316154,28.89 112.835692,28.89 C110.196247,28.880494 107.576075,28.4422267 105.078615,27.5925 L104.920308,21.4575 C105.835405,24.6576082 108.745791,26.8863492 112.089385,26.9475 C115.579692,26.9475 116.868769,25.065 116.868769,23.475 C116.868769,20.4225 112.798,20.16 109.503692,18.5025 C106.096308,16.815 104.882615,14.9625 104.882615,12.5925 C104.882615,7.725 110.446,6.0675 113.853385,6.0675 C116.006194,6.08367724 118.140301,6.46671915 120.163077,7.2 L120.359077,12.5925 C119.224433,9.8621314 116.544128,8.08437851 113.574462,8.0925 C110.988769,8.0925 109.699692,9.5175 109.699692,10.92 C109.699692,12.9 111.539077,13.5225 115.067077,14.7525 L115.029385,14.7675 Z M87.6421538,8.49 L87.6421538,26.6925 C87.9142939,26.732672 88.1887689,26.7552194 88.4638462,26.76 C92.4969231,26.76 94.668,25.17 94.668,22.26 C94.668,18.555 91.6526154,17.61 89.572,17.01 C91.8212458,16.5935041 93.4037015,14.5715984 93.2583077,12.3 C93.2583077,10.4475 91.6903077,8.4675 88.5995385,8.4675 C88.2816992,8.4671244 87.9642511,8.48968357 87.6496923,8.535 L87.6421538,8.49 Z M89.7001538,6.615 C92.3612308,6.615 98.7463077,7.5225 98.7463077,11.865 C98.7463077,16.02 93.1452308,17.025 93.1452308,17.025 C93.1452308,17.025 101.136,17.3475 101.136,22.545 C101.136,25.14 98.8744615,28.7175 90.7555385,28.7175 L82.1013846,28.7175 L82.1013846,6.5925 L89.6398462,6.5925 L89.7001538,6.615 Z M140.215385,28.68 L137.546769,23.49 L128.153846,23.49 L125.538,28.68 L122.484923,28.68 L134.584154,5.745 L147,28.6725 L140.215385,28.6725 L140.215385,28.68 Z M129.375077,21.045 L136.280308,21.045 C134.636923,17.925 132.782462,14.25 132.782462,14.25 C132.782462,14.25 130.076154,19.6725 129.375077,21.0375 L129.375077,21.045 Z" id="Shape"></path>
                    <path d="M18.2656923,15.27 C11.858,15.9825 5.23169231,19.5525 5.23169231,23.175 C5.23169231,27.4125 11.4358462,31.5075 24.99,32.8725 C11.5187692,33.8325 0,28.425 0,22.935 C0,18.2925 7.78723077,14.16 19.1250769,13.29 L18.2656923,15.27 Z" id="Shape"></path>
                    <path d="M12.2424615,24.0675 C12.2424615,21.9384423 13.9772548,20.2125 16.1172308,20.2125 C18.2572067,20.2125 19.992,21.9384423 19.992,24.0675 C19.992,26.1965577 18.2572067,27.9225 16.1172308,27.9225 C13.9772548,27.9225 12.2424615,26.1965577 12.2424615,24.0675" id="Shape"></path>
                    <path d="M32.7244615,13.6275 L24.8090769,0 L21.6429231,7.44 L30.7493846,23.115 C32.7621538,26.5725 35.4533846,28.095 38.514,28.095 C44.6276923,28.095 48.0803077,25.2825 48.2536923,22.905 C48.5476923,18.75 41.9213846,15.075 32.7244615,13.6275 M41.3786154,25.5825 C39.7352308,25.335 38.5667692,23.685 36.6444615,20.3325 L33.6290769,15.135 C40.8433846,16.5 45.9846154,19.38 45.6981538,22.74 C45.5775385,24.15 43.7230769,25.5 41.3786154,25.5825" id="Shape"></path>
                </g>
            </g>
        </g>
    </g>
</svg>