<?xml version="1.0" encoding="UTF-8"?>
<svg width="18px" height="10px" viewBox="0 0 18 10" version="1.1" xmlns="http://www.w3.org/2000/svg" xmlns:xlink="http://www.w3.org/1999/xlink">
    <!-- Generator: Sketch 40.3 (33839) - http://www.bohemiancoding.com/sketch -->
    <title>drawer_chevron</title>
    <desc>Created with Sketch.</desc>
    <defs></defs>
    <g id="Symbols" stroke="none" stroke-width="1" fill="none" fill-rule="evenodd" stroke-linecap="square" stroke-linejoin="round">
        <g id="drawer_chevron" stroke-width="2.5" stroke="#00AEEF">
            <g id="Path-2-Copy-4">
                <polyline points="0 0 9.15429688 9.17431641 17.9362793 0.174072266"></polyline>
            </g>
        </g>
    </g>
</svg>